<?xml version="1.0" encoding="UTF-8" standalone="no"?>
<svg width="183px" height="240px" viewBox="0 0 183 240" version="1.1" xmlns="http://www.w3.org/2000/svg" xmlns:xlink="http://www.w3.org/1999/xlink">
    <!-- Generator: Sketch 41.1 (35376) - http://www.bohemiancoding.com/sketch -->
    <title>icon</title>
    <desc>Created with Sketch.</desc>
    <defs>
        <polygon id="path-1" points="16.0653289 14.5053746 16.0653289 0.0891965255 0.69977948 0.0891965255 0.69977948 14.5053746 16.0653289 14.5053746"></polygon>
    </defs>
    <g id="Screens" stroke="none" stroke-width="1" fill="none" fill-rule="evenodd">
        <g id="DEF-CASE-DESIGN" transform="translate(-650.000000, -2105.000000)">
            <g id="Content" transform="translate(0.000000, 149.000000)">
                <g id="02_icon" transform="translate(0.000000, 1716.000000)">
                    <g id="icon" transform="translate(650.000000, 240.000000)">
                        <polygon id="Fill-1" fill="#FFFFFF" points="0 0.780412595 0 96.7962649 24.3037569 120.273464 24.3037569 24.304734 69.5801751 24.304734 45.2311209 0.780412595"></polygon>
                        <polygon id="Fill-2" fill="#FFFFFF" points="93.9316684 0.780412595 69.5826142 24.304734 114.855548 24.304734 114.855548 120.273464 139.159305 96.7962649 139.159305 0.780412595"></polygon>
                        <path d="M114.854851,216.24051 L69.5819173,216.24051 L93.9309715,239.761466 L139.158608,239.761466 L139.158608,143.748979 L114.854851,120.271781 L114.854851,216.24051 Z M0.00174220479,143.748979 L0.00174220479,239.761466 L45.2293787,239.761466 L69.5819173,216.24051 L24.3054991,216.24051 L24.3054991,120.271781 L0.00174220479,143.748979 Z" id="Fill-3" fill="#FFFFFF"></path>
                        <polygon id="Fill-4" fill="#FFFFFF" points="160.222212 15.2891531 157.783126 15.2891531 157.783126 2.892519 153.39277 2.892519 153.39277 0.872975027 164.612568 0.872975027 164.612568 2.892519 160.222212 2.892519"></polygon>
                        <g id="Group-7" transform="translate(166.197168, 0.783779)">
                            <mask id="mask-2" fill="white">
                                <use xlink:href="#path-1"></use>
                            </mask>
                            <g id="Clip-6"></g>
                            <path d="M7.15290604,14.5053746 L2.82526933,2.4655266 L2.7416435,2.4655266 C2.86011343,4.25282302 2.91586398,5.92904452 2.91586398,7.4941911 L2.91586398,14.5053746 L0.69977948,14.5053746 L0.69977948,0.0891965255 L4.14237615,0.0891965255 L8.28533916,11.5568404 L8.34805853,11.5568404 L12.6129759,0.0891965255 L16.0660258,0.0891965255 L16.0660258,14.5053746 L13.7175337,14.5053746 L13.7175337,7.37638436 C13.7175337,6.65944625 13.7349558,5.72709012 13.7732843,4.57595005 C13.8116128,3.42480999 13.8429725,2.72806732 13.8708477,2.48572204 L13.7872219,2.48572204 L9.30627117,14.5053746 L7.15290604,14.5053746 Z" id="Fill-5" fill="#FFFFFF" mask="url(#mask-2)"></path>
                        </g>
                    </g>
                </g>
            </g>
        </g>
    </g>
</svg>