<?xml version="1.0" encoding="UTF-8" standalone="no"?>
<svg width="22px" height="18px" viewBox="0 0 22 18" version="1.1" xmlns="http://www.w3.org/2000/svg" xmlns:xlink="http://www.w3.org/1999/xlink">
    <!-- Generator: Sketch 41.1 (35376) - http://www.bohemiancoding.com/sketch -->
    <title>Combined Shape</title>
    <desc>Created with Sketch.</desc>
    <defs></defs>
    <g id="Icons" stroke="none" stroke-width="1" fill-rule="evenodd">
        <g id="Icons_dark" transform="translate(-227.000000, -10.000000)">
            <g id="btn_sound" transform="translate(227.000000, 10.000000)">
                <path d="M6,17.9906964 L6,18 L0,18 L0,16 L4.66416201,16 L10.9989583,0.335214186 L17.3480096,16 L22,16 L22,18 L16,18 L16,17.99692 L15.9994376,17.997148 L11.0010417,5.66478581 L6.01416151,17.9964233 L6,17.9906964 Z" id="Combined-Shape"></path>
            </g>
        </g>
    </g>
</svg>